{
  "host": "cg-pkt-psql-nonprd.postgres.database.azure.com",
  "user": "pkt_app_pick_eu@cg-pkt-psql-nonprd",
  "password": "Pickeu#dev009",
  "database": "slickeupktdb",
  "port": 5432,
  "ssl": {
    "rejectUnauthorized": false
  }
}
