{
  "host": "cg-pkt-psql-nonprd.central.co.th",
  "user": "pkt_app_pick_vn_dev@cg-pkt-psql-nonprd",
  "password": "Pickvn#dev007",
  "database": "slickvnpktdb_dev",
  "port": 5432,
  "ssl": {
    "rejectUnauthorized": false
  }
}
